{
  "variables": {
    "cloud_token": "{{env `ATLAS_TOKEN`}}",
    "version": "7.8.{{timestamp}}",
    "atlas_changelog": "{{env `ATLAS_CHANGELOG`}}"
  },
  "builders": [
    {
      "type": "virtualbox-iso",
      "boot_wait": "5s",
      "http_port_min": 10082,
      "http_port_max": 10089,
      "ssh_username": "vagrant",
      "ssh_password": "vagrant",
      "ssh_host_port_min": 2222,
      "ssh_host_port_max": 2229,
      "ssh_port": 22,
      "ssh_wait_timeout": "1200s",
      "disk_size": 51200,
      "headless": false,
      "http_directory": "http",
      "iso_checksum": "9a2c47d97b9975452f7d582264e9fc16d108ed8252ac6816239a3b58cef5c53d",
      "iso_checksum_type": "sha256",
      "iso_urls": "http://mirror.1000mbps.com/centos/7/isos/x86_64/CentOS-7-x86_64-Minimal-1908.iso",
      "boot_command": [
        "<tab> text ks=http://{{ .HTTPIP }}:{{ .HTTPPort }}/ks.cfg<enter><wait>"
      ],
      "shutdown_command": "echo 'vagrant'|sudo -S /sbin/halt -h -p",
      "guest_os_type": "RedHat_64",
      "guest_additions_path": "VBoxGuestAdditions_{{.Version}}.iso",
      "virtualbox_version_file": ".vbox_version",
      "vm_name": "packer-centos-7-x86_64",
      "vboxmanage": [
        [
          "modifyvm", "{{.Name}}", "--memory", "1024"
        ],
        [
          "modifyvm", "{{.Name}}", "--cpus", "2"
        ]
      ]
    }
  ],
  "provisioners": [
    {
      "type": "ansible",
      "playbook_file": "./ansible/site.yml",
      "ansible_env_vars": [
        "ANSIBLE_SSH_ARGS=''",
        "ANSIBLE_SSH_PIPELINING=true"
      ]
    },
    {
      "type": "shell",
      "execute_command": "echo 'vagrant' | {{.Vars}} sudo -S -E bash '{{.Path}}'",
      "script": "scripts/cleanup.sh"
    }
  ],
  "post-processors": [
    [{
      "type": "vagrant",
      "compression_level": 9,
      "keep_input_artifact": true,
      "output": "builds/{{.Provider}}-centos-7.box"
    }]
  ]
}
